SNP FILTERING
…
#Split output from above function into separate dataframes
fix_tidy_filt1 <- keep[[1]]
gt_tidy_filt1 <- keep[[2]]
(keep_indv <- keep[[3]] %>% arrange(percent_missing))

## # A tibble: 62 x 3
##    Indiv                          percent_missing Pop  
##    <chr>                                    <dbl> <chr>
##  1 RAD-CCGOM_wC05_PRCS682_DRTO            0.00798 DRTO 
##  2 RAD-CCGOM_wB09_MCK117_CWFL             0.0140  CWFL 
##  3 RAD-CCGOM_wC06_MCK079_CWFL             0.0160  CWFL 
##  4 RAD-CCGOM_wE05_MCK103_CWFL             0.0160  CWFL 
##  5 RAD-CCGOM_wF05_KKF073R_NGM             0.0160  NGM  
##  6 RAD-CCGOM_wH08_KEY069_SWFL             0.0180  SWFL 
##  7 RAD-CCGOM_wB01_PRCS500C+C_DRTO         0.0199  DRTO 
##  8 RAD-CCGOM_wG03_MCK084_CWFL             0.0279  CWFL 
##  9 RAD-CCGOM_wF06_MCK076_CWFL             0.0319  CWFL 
## 10 RAD-CCGOM_wC09_MCK127_CWFL             0.0379  CWFL 
## # ... with 52 more rows
…
